{
   "current_page":1,
   "last_page":120,
   "total_items":3593,
   "success":true,
   "message":"Successfully",
   "data":[
      {
         "item_id":"352625",
         "category_id":"4",
         "item_description":"Sun Spring Ring",
         "item_code":"KR12883",
         "item_name":"KR12883",
         "ItemGenderCommonID":"252",
         "ItemNosePinScrewSts":"N",
         "item_kt":"18KT",
         "ApproxDeliveryDate":"09 Sep",
         "InStockDeliveryDate":"06 Sep",
         "item_brand_text":"KR12883 (KISNA FG)",
         "ItemIsSRP":"N",
         "sub_category_id":"0",
         "priceflag":"N",
         "item_mrp":"27400",
         "max_qty_sold":null,
         "image_path":"https:\/\/assets.kisna.com\/public\/uploads\/Product\/KR12883.png",
         "mostOrder":null,
         "isStockFilter":"N",
         "productTags":[
            {
               "tag_name":"Esme",
               "tag_color":"#f542da",
               "StruItemID":"352625"
            }
         ],
         "isInFranchiseStore":"N"
      },
      {
         "item_id":"352624",
         "category_id":"4",
         "item_description":"Sun Spring Ring",
         "item_code":"KR12882",
         "item_name":"KR12882",
         "ItemGenderCommonID":"252",
         "ItemNosePinScrewSts":"N",
         "item_kt":"18KT",
         "ApproxDeliveryDate":"09 Sep",
         "InStockDeliveryDate":"06 Sep",
         "item_brand_text":"KR12882 (KISNA FG)",
         "ItemIsSRP":"N",
         "sub_category_id":"0",
         "priceflag":"N",
         "item_mrp":"46000",
         "max_qty_sold":"2",
         "image_path":"https:\/\/assets.kisna.com\/public\/uploads\/Product\/KR12882.png",
         "mostOrder":null,
         "isStockFilter":"N",
         "productTags":[
            {
               "tag_name":"Esme",
               "tag_color":"#f542da",
               "StruItemID":"352624"
            }
         ],
         "isInFranchiseStore":"N"
      },
      {
         "item_id":"349374",
         "category_id":"4",
         "item_description":"Sun Spring Ring",
         "item_code":"KR12881",
         "item_name":"KR12881",
         "ItemGenderCommonID":"252",
         "ItemNosePinScrewSts":"N",
         "item_kt":"18KT",
         "ApproxDeliveryDate":"09 Sep",
         "InStockDeliveryDate":"06 Sep",
         "item_brand_text":"KR12881 (KISNA FG)",
         "ItemIsSRP":"N",
         "sub_category_id":"0",
         "priceflag":"N",
         "item_mrp":"36800",
         "max_qty_sold":null,
         "image_path":"https:\/\/assets.kisna.com\/public\/uploads\/Product\/KR12881.png",
         "mostOrder":null,
         "isStockFilter":"N",
         "productTags":[
            {
               "tag_name":"Esme",
               "tag_color":"#f542da",
               "StruItemID":"349374"
            }
         ],
         "isInFranchiseStore":"N"
      },
      {
         "item_id":"348942",
         "category_id":"4",
         "item_description":"Sun Spring Ring",
         "item_code":"KR12880",
         "item_name":"KR12880",
         "ItemGenderCommonID":"252",
         "ItemNosePinScrewSts":"N",
         "item_kt":"18KT",
         "ApproxDeliveryDate":"09 Sep",
         "InStockDeliveryDate":"06 Sep",
         "item_brand_text":"KR12880 (KISNA FG)",
         "ItemIsSRP":"N",
         "sub_category_id":"0",
         "priceflag":"N",
         "item_mrp":"20900",
         "max_qty_sold":null,
         "image_path":"https:\/\/assets.kisna.com\/public\/uploads\/Product\/KR12880_PW4.png",
         "mostOrder":null,
         "isStockFilter":"N",
         "productTags":[
            {
               "tag_name":"Esme",
               "tag_color":"#f542da",
               "StruItemID":"348942"
            }
         ],
         "isInFranchiseStore":"N"
      },
      {
         "item_id":"348941",
         "category_id":"4",
         "item_description":"Sun Spring Ring",
         "item_code":"KR12879",
         "item_name":"KR12879",
         "ItemGenderCommonID":"252",
         "ItemNosePinScrewSts":"N",
         "item_kt":"18KT",
         "ApproxDeliveryDate":"09 Sep",
         "InStockDeliveryDate":"06 Sep",
         "item_brand_text":"KR12879 (KISNA FG)",
         "ItemIsSRP":"N",
         "sub_category_id":"0",
         "priceflag":"N",
         "item_mrp":"66000",
         "max_qty_sold":null,
         "image_path":"https:\/\/assets.kisna.com\/public\/uploads\/Product\/KR12879.png",
         "mostOrder":null,
         "isStockFilter":"N",
         "productTags":[
            {
               "tag_name":"Esme",
               "tag_color":"#f542da",
               "StruItemID":"348941"
            }
         ],
         "isInFranchiseStore":"N"
      },
      {
         "item_id":"348940",
         "category_id":"4",
         "item_description":"Sun Spring Ring",
         "item_code":"KR12878",
         "item_name":"KR12878",
         "ItemGenderCommonID":"252",
         "ItemNosePinScrewSts":"N",
         "item_kt":"18KT",
         "ApproxDeliveryDate":"09 Sep",
         "InStockDeliveryDate":"06 Sep",
         "item_brand_text":"KR12878 (KISNA FG)",
         "ItemIsSRP":"N",
         "sub_category_id":"0",
         "priceflag":"N",
         "item_mrp":"77200",
         "max_qty_sold":null,
         "image_path":"https:\/\/assets.kisna.com\/public\/uploads\/Product\/KR12878.png",
         "mostOrder":null,
         "isStockFilter":"N",
         "productTags":[
            {
               "tag_name":"Esme",
               "tag_color":"#f542da",
               "StruItemID":"348940"
            }
         ],
         "isInFranchiseStore":"N"
      },
      {
         "item_id":"348939",
         "category_id":"4",
         "item_description":"Sun Spring Ring",
         "item_code":"KR12877",
         "item_name":"KR12877",
         "ItemGenderCommonID":"252",
         "ItemNosePinScrewSts":"N",
         "item_kt":"18KT",
         "ApproxDeliveryDate":"09 Sep",
         "InStockDeliveryDate":"06 Sep",
         "item_brand_text":"KR12877 (KISNA FG)",
         "ItemIsSRP":"N",
         "sub_category_id":"0",
         "priceflag":"N",
         "item_mrp":"60000",
         "max_qty_sold":null,
         "image_path":"https:\/\/assets.kisna.com\/public\/uploads\/Product\/KR12877.png",
         "mostOrder":null,
         "isStockFilter":"N",
         "productTags":[
            {
               "tag_name":"Esme",
               "tag_color":"#f542da",
               "StruItemID":"348939"
            }
         ],
         "isInFranchiseStore":"N"
      },
      {
         "item_id":"348938",
         "category_id":"4",
         "item_description":"Sun Spring Ring",
         "item_code":"KR12876",
         "item_name":"KR12876",
         "ItemGenderCommonID":"252",
         "ItemNosePinScrewSts":"N",
         "item_kt":"18KT",
         "ApproxDeliveryDate":"09 Sep",
         "InStockDeliveryDate":"06 Sep",
         "item_brand_text":"KR12876 (KISNA FG)",
         "ItemIsSRP":"N",
         "sub_category_id":"0",
         "priceflag":"N",
         "item_mrp":"15900",
         "max_qty_sold":null,
         "image_path":"https:\/\/assets.kisna.com\/public\/uploads\/Product\/KR12876.png",
         "mostOrder":null,
         "isStockFilter":"N",
         "productTags":[
            {
               "tag_name":"Esme",
               "tag_color":"#f542da",
               "StruItemID":"348938"
            }
         ],
         "isInFranchiseStore":"N"
      },
      {
         "item_id":"348937",
         "category_id":"4",
         "item_description":"Sun Spring Ring",
         "item_code":"KR12875",
         "item_name":"KR12875",
         "ItemGenderCommonID":"252",
         "ItemNosePinScrewSts":"N",
         "item_kt":"18KT",
         "ApproxDeliveryDate":"09 Sep",
         "InStockDeliveryDate":"06 Sep",
         "item_brand_text":"KR12875 (KISNA FG)",
         "ItemIsSRP":"N",
         "sub_category_id":"0",
         "priceflag":"N",
         "item_mrp":"23000",
         "max_qty_sold":null,
         "image_path":"https:\/\/assets.kisna.com\/public\/uploads\/Product\/KR12875.png",
         "mostOrder":null,
         "isStockFilter":"N",
         "productTags":[
            {
               "tag_name":"Esme",
               "tag_color":"#f542da",
               "StruItemID":"348937"
            }
         ],
         "isInFranchiseStore":"N"
      },
      {
         "item_id":"348936",
         "category_id":"4",
         "item_description":"Sun Spring Ring",
         "item_code":"KR12874",
         "item_name":"KR12874",
         "ItemGenderCommonID":"252",
         "ItemNosePinScrewSts":"N",
         "item_kt":"18KT",
         "ApproxDeliveryDate":"09 Sep",
         "InStockDeliveryDate":"06 Sep",
         "item_brand_text":"KR12874 (KISNA FG)",
         "ItemIsSRP":"N",
         "sub_category_id":"0",
         "priceflag":"N",
         "item_mrp":"23200",
         "max_qty_sold":null,
         "image_path":"https:\/\/assets.kisna.com\/public\/uploads\/Product\/KR12874.png",
         "mostOrder":null,
         "isStockFilter":"N",
         "productTags":[
            {
               "tag_name":"Esme",
               "tag_color":"#f542da",
               "StruItemID":"348936"
            }
         ],
         "isInFranchiseStore":"N"
      },
      {
         "item_id":"348935",
         "category_id":"4",
         "item_description":"Sun Spring Ring",
         "item_code":"KR12873",
         "item_name":"KR12873",
         "ItemGenderCommonID":"252",
         "ItemNosePinScrewSts":"N",
         "item_kt":"18KT",
         "ApproxDeliveryDate":"09 Sep",
         "InStockDeliveryDate":"06 Sep",
         "item_brand_text":"KR12873 (KISNA FG)",
         "ItemIsSRP":"N",
         "sub_category_id":"0",
         "priceflag":"N",
         "item_mrp":"26100",
         "max_qty_sold":null,
         "image_path":"https:\/\/assets.kisna.com\/public\/uploads\/Product\/KR12873.png",
         "mostOrder":null,
         "isStockFilter":"N",
         "productTags":[
            {
               "tag_name":"Esme",
               "tag_color":"#f542da",
               "StruItemID":"348935"
            }
         ],
         "isInFranchiseStore":"N"
      },
      {
         "item_id":"348934",
         "category_id":"4",
         "item_description":"Sun Spring Ring",
         "item_code":"KR12872",
         "item_name":"KR12872",
         "ItemGenderCommonID":"252",
         "ItemNosePinScrewSts":"N",
         "item_kt":"18KT",
         "ApproxDeliveryDate":"09 Sep",
         "InStockDeliveryDate":"06 Sep",
         "item_brand_text":"KR12872 (KISNA FG)",
         "ItemIsSRP":"N",
         "sub_category_id":"0",
         "priceflag":"N",
         "item_mrp":"20600",
         "max_qty_sold":null,
         "image_path":"https:\/\/assets.kisna.com\/public\/uploads\/Product\/KR12872.png",
         "mostOrder":null,
         "isStockFilter":"N",
         "productTags":[
            {
               "tag_name":"Esme",
               "tag_color":"#f542da",
               "StruItemID":"348934"
            }
         ],
         "isInFranchiseStore":"N"
      },
      {
         "item_id":"348933",
         "category_id":"4",
         "item_description":"Sun Spring Ring",
         "item_code":"KR12871",
         "item_name":"KR12871",
         "ItemGenderCommonID":"252",
         "ItemNosePinScrewSts":"N",
         "item_kt":"18KT",
         "ApproxDeliveryDate":"09 Sep",
         "InStockDeliveryDate":"06 Sep",
         "item_brand_text":"KR12871 (KISNA FG)",
         "ItemIsSRP":"N",
         "sub_category_id":"0",
         "priceflag":"N",
         "item_mrp":"29000",
         "max_qty_sold":null,
         "image_path":"https:\/\/assets.kisna.com\/public\/uploads\/Product\/KR12871.png",
         "mostOrder":null,
         "isStockFilter":"N",
         "productTags":[
            {
               "tag_name":"Esme",
               "tag_color":"#f542da",
               "StruItemID":"348933"
            }
         ],
         "isInFranchiseStore":"N"
      },
      {
         "item_id":"348932",
         "category_id":"4",
         "item_description":"Sun Spring Ring",
         "item_code":"KR12870",
         "item_name":"KR12870",
         "ItemGenderCommonID":"252",
         "ItemNosePinScrewSts":"N",
         "item_kt":"18KT",
         "ApproxDeliveryDate":"09 Sep",
         "InStockDeliveryDate":"06 Sep",
         "item_brand_text":"KR12870 (KISNA FG)",
         "ItemIsSRP":"N",
         "sub_category_id":"0",
         "priceflag":"N",
         "item_mrp":"20000",
         "max_qty_sold":null,
         "image_path":"https:\/\/assets.kisna.com\/public\/uploads\/Product\/KR12870.png",
         "mostOrder":null,
         "isStockFilter":"N",
         "productTags":[
            {
               "tag_name":"Esme",
               "tag_color":"#f542da",
               "StruItemID":"348932"
            }
         ],
         "isInFranchiseStore":"N"
      },
      {
         "item_id":"348931",
         "category_id":"4",
         "item_description":"Sun Spring Ring",
         "item_code":"KR12869",
         "item_name":"KR12869",
         "ItemGenderCommonID":"252",
         "ItemNosePinScrewSts":"N",
         "item_kt":"18KT",
         "ApproxDeliveryDate":"09 Sep",
         "InStockDeliveryDate":"06 Sep",
         "item_brand_text":"KR12869 (KISNA FG)",
         "ItemIsSRP":"N",
         "sub_category_id":"0",
         "priceflag":"N",
         "item_mrp":"21400",
         "max_qty_sold":null,
         "image_path":"https:\/\/assets.kisna.com\/public\/uploads\/Product\/KR12869.png",
         "mostOrder":null,
         "isStockFilter":"N",
         "productTags":[
            {
               "tag_name":"Esme",
               "tag_color":"#f542da",
               "StruItemID":"348931"
            }
         ],
         "isInFranchiseStore":"N"
      },
      {
         "item_id":"348930",
         "category_id":"4",
         "item_description":"Sun Spring Ring",
         "item_code":"KR12868",
         "item_name":"KR12868",
         "ItemGenderCommonID":"252",
         "ItemNosePinScrewSts":"N",
         "item_kt":"18KT",
         "ApproxDeliveryDate":"09 Sep",
         "InStockDeliveryDate":"06 Sep",
         "item_brand_text":"KR12868 (KISNA FG)",
         "ItemIsSRP":"N",
         "sub_category_id":"0",
         "priceflag":"N",
         "item_mrp":"17900",
         "max_qty_sold":null,
         "image_path":"https:\/\/assets.kisna.com\/public\/uploads\/Product\/KR12868.png",
         "mostOrder":null,
         "isStockFilter":"N",
         "productTags":[
            {
               "tag_name":"Esme",
               "tag_color":"#f542da",
               "StruItemID":"348930"
            }
         ],
         "isInFranchiseStore":"N"
      },
      {
         "item_id":"348929",
         "category_id":"4",
         "item_description":"Sun Spring Ring",
         "item_code":"KR12867",
         "item_name":"KR12867",
         "ItemGenderCommonID":"252",
         "ItemNosePinScrewSts":"N",
         "item_kt":"18KT",
         "ApproxDeliveryDate":"09 Sep",
         "InStockDeliveryDate":"06 Sep",
         "item_brand_text":"KR12867 (KISNA FG)",
         "ItemIsSRP":"N",
         "sub_category_id":"0",
         "priceflag":"N",
         "item_mrp":"24900",
         "max_qty_sold":null,
         "image_path":"https:\/\/assets.kisna.com\/public\/uploads\/Product\/KR12867.png",
         "mostOrder":null,
         "isStockFilter":"N",
         "productTags":[
            {
               "tag_name":"Esme",
               "tag_color":"#f542da",
               "StruItemID":"348929"
            }
         ],
         "isInFranchiseStore":"N"
      },
      {
         "item_id":"348928",
         "category_id":"4",
         "item_description":"Sun Spring Ring",
         "item_code":"KR12866",
         "item_name":"KR12866",
         "ItemGenderCommonID":"252",
         "ItemNosePinScrewSts":"N",
         "item_kt":"18KT",
         "ApproxDeliveryDate":"15 Sep",
         "InStockDeliveryDate":"06 Sep",
         "item_brand_text":"KR12866 (KISNA FG)",
         "ItemIsSRP":"N",
         "sub_category_id":"0",
         "priceflag":"N",
         "item_mrp":"52000",
         "max_qty_sold":null,
         "image_path":"https:\/\/assets.kisna.com\/public\/uploads\/Product\/KR12866.png",
         "mostOrder":null,
         "isStockFilter":"N",
         "productTags":[
            {
               "tag_name":"Esme",
               "tag_color":"#f542da",
               "StruItemID":"348928"
            }
         ],
         "isInFranchiseStore":"N"
      },
      {
         "item_id":"348927",
         "category_id":"4",
         "item_description":"Sun Spring Ring",
         "item_code":"KR12865",
         "item_name":"KR12865",
         "ItemGenderCommonID":"252",
         "ItemNosePinScrewSts":"N",
         "item_kt":"18KT",
         "ApproxDeliveryDate":"09 Sep",
         "InStockDeliveryDate":"06 Sep",
         "item_brand_text":"KR12865 (KISNA FG)",
         "ItemIsSRP":"N",
         "sub_category_id":"0",
         "priceflag":"N",
         "item_mrp":"22100",
         "max_qty_sold":null,
         "image_path":"https:\/\/assets.kisna.com\/public\/uploads\/Product\/KR12865.png",
         "mostOrder":null,
         "isStockFilter":"N",
         "productTags":[
            {
               "tag_name":"Esme",
               "tag_color":"#f542da",
               "StruItemID":"348927"
            }
         ],
         "isInFranchiseStore":"N"
      },
      {
         "item_id":"348926",
         "category_id":"4",
         "item_description":"Sun Spring Ring",
         "item_code":"KR12864",
         "item_name":"KR12864",
         "ItemGenderCommonID":"252",
         "ItemNosePinScrewSts":"N",
         "item_kt":"18KT",
         "ApproxDeliveryDate":"09 Sep",
         "InStockDeliveryDate":"06 Sep",
         "item_brand_text":"KR12864 (KISNA FG)",
         "ItemIsSRP":"N",
         "sub_category_id":"0",
         "priceflag":"N",
         "item_mrp":"21400",
         "max_qty_sold":null,
         "image_path":"https:\/\/assets.kisna.com\/public\/uploads\/Product\/KR12864.png",
         "mostOrder":null,
         "isStockFilter":"N",
         "productTags":[
            {
               "tag_name":"Esme",
               "tag_color":"#f542da",
               "StruItemID":"348926"
            }
         ],
         "isInFranchiseStore":"N"
      },
      {
         "item_id":"348925",
         "category_id":"4",
         "item_description":"Sun Spring Ring",
         "item_code":"KR12863",
         "item_name":"KR12863",
         "ItemGenderCommonID":"252",
         "ItemNosePinScrewSts":"N",
         "item_kt":"18KT",
         "ApproxDeliveryDate":"09 Sep",
         "InStockDeliveryDate":"06 Sep",
         "item_brand_text":"KR12863 (KISNA FG)",
         "ItemIsSRP":"N",
         "sub_category_id":"0",
         "priceflag":"N",
         "item_mrp":"22300",
         "max_qty_sold":null,
         "image_path":"https:\/\/assets.kisna.com\/public\/uploads\/Product\/KR12863.png",
         "mostOrder":null,
         "isStockFilter":"N",
         "productTags":[
            {
               "tag_name":"Esme",
               "tag_color":"#f542da",
               "StruItemID":"348925"
            }
         ],
         "isInFranchiseStore":"N"
      },
      {
         "item_id":"348924",
         "category_id":"4",
         "item_description":"Sun Spring Ring",
         "item_code":"KR12862",
         "item_name":"KR12862",
         "ItemGenderCommonID":"252",
         "ItemNosePinScrewSts":"N",
         "item_kt":"18KT",
         "ApproxDeliveryDate":"09 Sep",
         "InStockDeliveryDate":"06 Sep",
         "item_brand_text":"KR12862 (KISNA FG)",
         "ItemIsSRP":"N",
         "sub_category_id":"0",
         "priceflag":"N",
         "item_mrp":"19500",
         "max_qty_sold":null,
         "image_path":"https:\/\/assets.kisna.com\/public\/uploads\/Product\/KR12862.png",
         "mostOrder":null,
         "isStockFilter":"N",
         "productTags":[
            {
               "tag_name":"Esme",
               "tag_color":"#f542da",
               "StruItemID":"348924"
            }
         ],
         "isInFranchiseStore":"N"
      },
      {
         "item_id":"348923",
         "category_id":"4",
         "item_description":"Sun Spring Ring",
         "item_code":"KR12861",
         "item_name":"KR12861",
         "ItemGenderCommonID":"252",
         "ItemNosePinScrewSts":"N",
         "item_kt":"18KT",
         "ApproxDeliveryDate":"09 Sep",
         "InStockDeliveryDate":"06 Sep",
         "item_brand_text":"KR12861 (KISNA FG)",
         "ItemIsSRP":"N",
         "sub_category_id":"0",
         "priceflag":"N",
         "item_mrp":"20500",
         "max_qty_sold":null,
         "image_path":"https:\/\/assets.kisna.com\/public\/uploads\/Product\/KR12861.png",
         "mostOrder":null,
         "isStockFilter":"N",
         "productTags":[
            {
               "tag_name":"Esme",
               "tag_color":"#f542da",
               "StruItemID":"348923"
            }
         ],
         "isInFranchiseStore":"N"
      },
      {
         "item_id":"348922",
         "category_id":"4",
         "item_description":"Sun Spring Ring",
         "item_code":"KR12860",
         "item_name":"KR12860",
         "ItemGenderCommonID":"252",
         "ItemNosePinScrewSts":"N",
         "item_kt":"18KT",
         "ApproxDeliveryDate":"09 Sep",
         "InStockDeliveryDate":"06 Sep",
         "item_brand_text":"KR12860 (KISNA FG)",
         "ItemIsSRP":"N",
         "sub_category_id":"0",
         "priceflag":"N",
         "item_mrp":"20000",
         "max_qty_sold":null,
         "image_path":"https:\/\/assets.kisna.com\/public\/uploads\/Product\/KR12860.png",
         "mostOrder":null,
         "isStockFilter":"N",
         "productTags":[
            {
               "tag_name":"Esme",
               "tag_color":"#f542da",
               "StruItemID":"348922"
            }
         ],
         "isInFranchiseStore":"N"
      },
      {
         "item_id":"348921",
         "category_id":"4",
         "item_description":"Sun Spring Ring",
         "item_code":"KR12859R",
         "item_name":"KR12859R",
         "ItemGenderCommonID":"252",
         "ItemNosePinScrewSts":"N",
         "item_kt":"18KT",
         "ApproxDeliveryDate":"09 Sep",
         "InStockDeliveryDate":"06 Sep",
         "item_brand_text":"KR12859R (KISNA FG)",
         "ItemIsSRP":"N",
         "sub_category_id":"0",
         "priceflag":"N",
         "item_mrp":"16500",
         "max_qty_sold":null,
         "image_path":"https:\/\/assets.kisna.com\/public\/uploads\/Product\/KR12859R.png",
         "mostOrder":null,
         "isStockFilter":"N",
         "productTags":[
            {
               "tag_name":"Esme",
               "tag_color":"#f542da",
               "StruItemID":"348921"
            }
         ],
         "isInFranchiseStore":"N"
      },
      {
         "item_id":"348920",
         "category_id":"4",
         "item_description":"Sun Spring Ring",
         "item_code":"KR12859G",
         "item_name":"KR12859G",
         "ItemGenderCommonID":"252",
         "ItemNosePinScrewSts":"N",
         "item_kt":"18KT",
         "ApproxDeliveryDate":"09 Sep",
         "InStockDeliveryDate":"06 Sep",
         "item_brand_text":"KR12859G (KISNA FG)",
         "ItemIsSRP":"N",
         "sub_category_id":"0",
         "priceflag":"N",
         "item_mrp":"16500",
         "max_qty_sold":null,
         "image_path":"https:\/\/assets.kisna.com\/public\/uploads\/Product\/KR12859G.png",
         "mostOrder":null,
         "isStockFilter":"N",
         "productTags":[
            {
               "tag_name":"Esme",
               "tag_color":"#f542da",
               "StruItemID":"348920"
            }
         ],
         "isInFranchiseStore":"N"
      },
      {
         "item_id":"348919",
         "category_id":"4",
         "item_description":"Sun Spring Ring",
         "item_code":"KR12859B",
         "item_name":"KR12859B",
         "ItemGenderCommonID":"252",
         "ItemNosePinScrewSts":"N",
         "item_kt":"18KT",
         "ApproxDeliveryDate":"09 Sep",
         "InStockDeliveryDate":"06 Sep",
         "item_brand_text":"KR12859B (KISNA FG)",
         "ItemIsSRP":"N",
         "sub_category_id":"0",
         "priceflag":"N",
         "item_mrp":"16500",
         "max_qty_sold":null,
         "image_path":"https:\/\/assets.kisna.com\/public\/uploads\/Product\/KR12859B.png",
         "mostOrder":null,
         "isStockFilter":"N",
         "productTags":[
            {
               "tag_name":"Esme",
               "tag_color":"#f542da",
               "StruItemID":"348919"
            }
         ],
         "isInFranchiseStore":"N"
      },
      {
         "item_id":"324093",
         "category_id":"4",
         "item_description":"Sun Spring Ring",
         "item_code":"KRF10072R",
         "item_name":"KRF10072R",
         "ItemGenderCommonID":"252",
         "ItemNosePinScrewSts":"N",
         "item_kt":"18KT",
         "ApproxDeliveryDate":"09 Sep",
         "InStockDeliveryDate":"06 Sep",
         "item_brand_text":"KRF10072R (KISNA FG)",
         "ItemIsSRP":"Y",
         "sub_category_id":"0",
         "priceflag":"Y",
         "item_mrp":"160551",
         "max_qty_sold":null,
         "image_path":"https:\/\/assets.kisna.com\/public\/uploads\/Product\/KRF10072R.png",
         "mostOrder":null,
         "isStockFilter":"N",
         "productTags":[
            {
               "tag_name":"Starlight 3",
               "tag_color":"#f542da",
               "StruItemID":"324093"
            }
         ],
         "isInFranchiseStore":"N"
      },
      {
         "item_id":"324092",
         "category_id":"4",
         "item_description":"Sun Spring Ring",
         "item_code":"KRF10072G",
         "item_name":"KRF10072G",
         "ItemGenderCommonID":"252",
         "ItemNosePinScrewSts":"N",
         "item_kt":"18KT",
         "ApproxDeliveryDate":"09 Sep",
         "InStockDeliveryDate":"06 Sep",
         "item_brand_text":"KRF10072G (KISNA FG)",
         "ItemIsSRP":"Y",
         "sub_category_id":"0",
         "priceflag":"Y",
         "item_mrp":"159877",
         "max_qty_sold":null,
         "image_path":"https:\/\/assets.kisna.com\/public\/uploads\/Product\/KRF10072G.png",
         "mostOrder":null,
         "isStockFilter":"N",
         "productTags":[
            {
               "tag_name":"Starlight 3",
               "tag_color":"#f542da",
               "StruItemID":"324092"
            }
         ],
         "isInFranchiseStore":"N"
      },
      {
         "item_id":"324091",
         "category_id":"4",
         "item_description":"Sun Spring Ring",
         "item_code":"KRF10072B",
         "item_name":"KRF10072B",
         "ItemGenderCommonID":"252",
         "ItemNosePinScrewSts":"N",
         "item_kt":"18KT",
         "ApproxDeliveryDate":"09 Sep",
         "InStockDeliveryDate":"06 Sep",
         "item_brand_text":"KRF10072B (KISNA FG)",
         "ItemIsSRP":"Y",
         "sub_category_id":"0",
         "priceflag":"Y",
         "item_mrp":"159902",
         "max_qty_sold":null,
         "image_path":"https:\/\/assets.kisna.com\/public\/uploads\/Product\/KRF10072B.png",
         "mostOrder":null,
         "isStockFilter":"N",
         "productTags":[
            {
               "tag_name":"Starlight 3",
               "tag_color":"#f542da",
               "StruItemID":"324091"
            }
         ],
         "isInFranchiseStore":"N"
      }
   ]
}